Plotly Instacart
…
# Load data
data("instacart")

# Subset data
instacart <- instacart %>% 
  select(-eval_set, -aisle_id, -department_id, -product_id) %>%
  filter(user_id < 10000)

# most popular aisles
instacart %>% 
  count(aisle) %>% 
  arrange(desc(n)) %>% 
  print(n=20)

## # A tibble: 134 × 2
##    aisle                             n
##    <chr>                         <int>
##  1 fresh fruits                   7195
##  2 fresh vegetables               7182
##  3 packaged vegetables fruits     3748
##  4 yogurt                         2611
##  5 packaged cheese                1936
##  6 water seltzer sparkling water  1842
##  7 milk                           1562
##  8 chips pretzels                 1483
##  9 soy lactosefree                1291
## 10 ice cream ice                  1195
## 11 bread                          1140
## 12 frozen produce                 1100
## 13 refrigerated                   1069
## 14 crackers                        947
## 15 eggs                            925
## 16 energy granola bars             885
## 17 cereal                          842
## 18 frozen meals                    808
## 19 lunch meat                      790
## 20 fresh herbs                     786
## # ℹ 114 more rows
…
